%YAML 1.1
%TAG !u! tag:unity3d.com,2011:
--- !u!21 &2100000
Material:
  serializedVersion: 6
  m_ObjectHideFlags: 0
  m_PrefabParentObject: {fileID: 0}
  m_PrefabInternal: {fileID: 0}
  m_Name: mcp_building_07_windows_01
  m_Shader: {fileID: 22, guid: 0000000000000000f000000000000000, type: 0}
  m_ShaderKeywords: 
  m_LightmapFlags: 5
  m_CustomRenderQueue: -1
  stringTagMap: {}
  m_SavedProperties:
    serializedVersion: 2
    m_TexEnvs:
      data:
        first:
          name: _MainTex
        second:
          m_Texture: {fileID: 2800000, guid: e31372d247c08524996cd63ca03ecee2, type: 3}
          m_Scale: {x: 1, y: 1}
          m_Offset: {x: 0, y: 0}
      data:
        first:
          name: _Cube
        second:
          m_Texture: {fileID: 8900000, guid: 8b9a48203f58e394393eef2366621324, type: 2}
          m_Scale: {x: 1, y: 1}
          m_Offset: {x: 0, y: 0}
    m_Floats:
      data:
        first:
          name: _Shininess
        second: 0.41084635
    m_Colors:
      data:
        first:
          name: _Color
        second: {r: 0.9852941, g: 0.9852941, b: 0.9852941, a: 1}
      data:
        first:
          name: _SpecColor
        second: {r: 0.32156864, g: 0.32156864, b: 0.32156864, a: 1}
      data:
        first:
          name: _ReflectColor
        second: {r: 0.17647058, g: 0.17647058, b: 0.17647058, a: 0.5019608}
