%YAML 1.1
%TAG !u! tag:unity3d.com,2011:
--- !u!21 &2100000
Material:
  serializedVersion: 6
  m_ObjectHideFlags: 0
  m_PrefabParentObject: {fileID: 0}
  m_PrefabInternal: {fileID: 0}
  m_Name: mcp_building_05_metal
  m_Shader: {fileID: 10703, guid: 0000000000000000f000000000000000, type: 0}
  m_ShaderKeywords: 
  m_LightmapFlags: 5
  m_CustomRenderQueue: 2000
  stringTagMap: {}
  m_SavedProperties:
    serializedVersion: 2
    m_TexEnvs:
      data:
        first:
          name: _MainTex
        second:
          m_Texture: {fileID: 0}
          m_Scale: {x: 1, y: 1}
          m_Offset: {x: 0, y: 0}
      data:
        first:
          name: _BumpMap
        second:
          m_Texture: {fileID: 2800000, guid: 415dec36c1ebec74ab83e1b8632f3aec, type: 3}
          m_Scale: {x: 1, y: 1}
          m_Offset: {x: 0, y: 0}
      data:
        first:
          name: _Cube
        second:
          m_Texture: {fileID: 8900000, guid: 8b9a48203f58e394393eef2366621324, type: 2}
          m_Scale: {x: 1, y: 1}
          m_Offset: {x: 0, y: 0}
      data:
        first:
          name: _Spec_Gloss_Reflec_Masks
        second:
          m_Texture: {fileID: 2800000, guid: c1b8a6ac69a8011448c689b08f2563eb, type: 3}
          m_Scale: {x: 1, y: 1}
          m_Offset: {x: 0, y: 0}
    m_Floats:
      data:
        first:
          name: _Reflection
        second: 0.014925377
      data:
        first:
          name: _Shininess
        second: 2.074875
      data:
        first:
          name: _Gloss
        second: 0.17910446
      data:
        first:
          name: _FrezPow
        second: 0.119403
      data:
        first:
          name: _FrezFalloff
        second: 0
      data:
        first:
          name: _Metalics
        second: 0
      data:
        first:
          name: _EdgeAlpha
        second: 0
    m_Colors:
      data:
        first:
          name: _Color
        second: {r: 0.53676474, g: 0.53676474, b: 0.53676474, a: 1}
      data:
        first:
          name: _SpecColor
        second: {r: 1, g: 1, b: 1, a: 1}
      data:
        first:
          name: _ReflectColor
        second: {r: 0.31617647, g: 0.31617647, b: 0.31617647, a: 0.5019608}
