%YAML 1.1
%TAG !u! tag:unity3d.com,2011:
--- !u!21 &2100000
Material:
  serializedVersion: 6
  m_ObjectHideFlags: 0
  m_PrefabParentObject: {fileID: 0}
  m_PrefabInternal: {fileID: 0}
  m_Name: mcp_building_19_wall_01_04
  m_Shader: {fileID: 10703, guid: 0000000000000000f000000000000000, type: 0}
  m_ShaderKeywords: 
  m_LightmapFlags: 5
  m_CustomRenderQueue: 2000
  stringTagMap: {}
  m_SavedProperties:
    serializedVersion: 2
    m_TexEnvs:
      data:
        first:
          name: _MainTex
        second:
          m_Texture: {fileID: 2800000, guid: 80db2888c2df20d42a0b48c0da7a277a, type: 3}
          m_Scale: {x: 1, y: 1}
          m_Offset: {x: 0.1, y: 0.1}
      data:
        first:
          name: _BumpMap
        second:
          m_Texture: {fileID: 2800000, guid: 91233327424bd5d49b7ba066d9ba5c7c, type: 3}
          m_Scale: {x: 3, y: 3}
          m_Offset: {x: 0.1, y: 0.1}
    m_Floats: {}
    m_Colors:
      data:
        first:
          name: _Color
        second: {r: 0.75735295, g: 0.75735295, b: 0.75735295, a: 1}
