%YAML 1.1
%TAG !u! tag:unity3d.com,2011:
--- !u!114 &11400000
MonoBehaviour:
  m_ObjectHideFlags: 0
  m_PrefabParentObject: {fileID: 0}
  m_PrefabInternal: {fileID: 0}
  m_GameObject: {fileID: 0}
  m_Enabled: 1
  m_EditorHideFlags: 0
  m_Script: {fileID: 11500000, guid: 7d41887b1546f5c44ab54e7e65aad3bc, type: 3}
  m_Name: Combine_03
  m_EditorClassIdentifier: 
  combinedMaterialInfo: []
  materials: []
  prefabUVRects: []
  materialsAndUVRects: []
  resultMaterial: {fileID: 0}
  resultMaterials: []
  doMultiMaterial: 0
  fixOutOfBoundsUVs: 0
