%YAML 1.1
%TAG !u! tag:unity3d.com,2011:
--- !u!21 &2100000
Material:
  serializedVersion: 6
  m_ObjectHideFlags: 0
  m_PrefabParentObject: {fileID: 0}
  m_PrefabInternal: {fileID: 0}
  m_Name: Combine_03-mat0
  m_Shader: {fileID: 10703, guid: 0000000000000000f000000000000000, type: 0}
  m_ShaderKeywords: 
  m_LightmapFlags: 5
  m_CustomRenderQueue: 2000
  stringTagMap: {}
  m_SavedProperties:
    serializedVersion: 2
    m_TexEnvs:
      data:
        first:
          name: _MainTex
        second:
          m_Texture: {fileID: 2800000, guid: 7e7d74c5773abd34183fba14b53c43d1, type: 3}
          m_Scale: {x: 1, y: 1}
          m_Offset: {x: 0, y: 0}
      data:
        first:
          name: _BumpMap
        second:
          m_Texture: {fileID: 2800000, guid: d075aff7849525f469b0a78b57140063, type: 3}
          m_Scale: {x: 1, y: 1}
          m_Offset: {x: 0, y: 0}
    m_Floats:
      data:
        first:
          name: _Shininess
        second: 0.3706869
    m_Colors:
      data:
        first:
          name: _Color
        second: {r: 0.71323526, g: 0.71323526, b: 0.71323526, a: 1}
      data:
        first:
          name: _SpecColor
        second: {r: 0.20588237, g: 0.20588237, b: 0.20588237, a: 1}
